[gd_scene load_steps=4 format=3 uid="uid://ctm8bd2safcek"]

[ext_resource type="Shader" path="res://resources/shaders/sphere.gdshader" id="1_76u60"]
[ext_resource type="Script" path="res://scripts/core/render_sphere.gd" id="1_xvvho"]

[sub_resource type="ShaderMaterial" id="ShaderMaterial_eixk1"]
shader = ExtResource("1_76u60")
shader_parameter/screen_size = Vector2(1920, 1080)
shader_parameter/screen_position = Vector2(-960, -540)
shader_parameter/sphere_radius = 100.0
shader_parameter/sphere_position = Vector2(0, 0)
shader_parameter/sphere_light_decay = 20.0
shader_parameter/cell_amount = 5
shader_parameter/speed = 0.1
shader_parameter/amplitude = 0.01
shader_parameter/color_background = Color(0.082, 0.094, 0.118, 0)
shader_parameter/color_sphere = Color(0.746, 0.385, 0, 1)
shader_parameter/color_light = Color(0.664, 0.105, 0, 1)

[node name="SphereRender" type="Node2D"]
script = ExtResource("1_xvvho")

[node name="ColorRect" type="ColorRect" parent="."]
material = SubResource("ShaderMaterial_eixk1")
offset_right = 404.0
offset_bottom = 437.0
