[gd_scene load_steps=2 format=3 uid="uid://bkvc06as7by0v"]

[ext_resource type="Script" path="res://GameEngine.gd" id="1"]

[node name="GameEngine" type="Node2D"]
visible = false
script = ExtResource("1")
